\relax 
\@writefile{toc}{\contentsline {section}{\numberline {1}Tutorial pembuatan aplikasi dengan APEX}{1}\protected@file@percent }
\@writefile{toc}{\contentsline {subsection}{\numberline {1.1}Tutorial apex}{1}\protected@file@percent }
\@writefile{lof}{\contentsline {figure}{\numberline {1}{\ignorespaces kita menuju create \relax }}{1}\protected@file@percent }
\@writefile{lof}{\contentsline {figure}{\numberline {2}{\ignorespaces kita pilih froma file\relax }}{2}\protected@file@percent }
\@writefile{lof}{\contentsline {figure}{\numberline {3}{\ignorespaces tampilan akan muncul seperti gambar diatas\relax }}{2}\protected@file@percent }
\@writefile{lof}{\contentsline {figure}{\numberline {4}{\ignorespaces kita choose file" lalu kita pilih file yang akan dimasukka\relax }}{3}\protected@file@percent }
\@writefile{lof}{\contentsline {figure}{\numberline {5}{\ignorespaces kita beri nama pada tabel tersebut dan kita klik configure\relax }}{3}\protected@file@percent }
\@writefile{lof}{\contentsline {figure}{\numberline {6}{\ignorespaces kita bisa lihat data yang telah kita buat\relax }}{4}\protected@file@percent }
\@writefile{lof}{\contentsline {figure}{\numberline {7}{\ignorespaces terus kita load data\relax }}{4}\protected@file@percent }
\@writefile{lof}{\contentsline {figure}{\numberline {8}{\ignorespaces pada tahapan ini masuk di sql command\relax }}{5}\protected@file@percent }
\@writefile{lof}{\contentsline {figure}{\numberline {9}{\ignorespaces tampilan akan masuk seperti gambar diatas"\relax }}{5}\protected@file@percent }
\@writefile{lof}{\contentsline {figure}{\numberline {10}{\ignorespaces terus kita masukkan seperti gambar diatas\relax }}{6}\protected@file@percent }
\@writefile{lof}{\contentsline {figure}{\numberline {11}{\ignorespaces lakukan seperti gambar diatas untuk melakukan pengecekan apakah tabel sudah masuk \relax }}{6}\protected@file@percent }
\@writefile{lof}{\contentsline {figure}{\numberline {12}{\ignorespaces saat pembuatan kita bisa masuk di new application\relax }}{7}\protected@file@percent }
\@writefile{lof}{\contentsline {figure}{\numberline {13}{\ignorespaces kita kasi nama dan pada proses ini kita klik add page terus kita pilih "interactive report"\relax }}{7}\protected@file@percent }
\@writefile{lof}{\contentsline {figure}{\numberline {14}{\ignorespaces kita masukkan data yang telah kita inputkan kedadalm "ulangi proses add page tersebut sampai semua data yang telah kita masukkan dapat kita inputkan\relax }}{8}\protected@file@percent }
\@writefile{lof}{\contentsline {figure}{\numberline {15}{\ignorespaces  "ulangi proses add page tersebut sampai semua data yang telah kita masukkan dapat kita inputkan"\relax }}{8}\protected@file@percent }
\@writefile{lof}{\contentsline {figure}{\numberline {16}{\ignorespaces setelah itu semua kita bisa klik create application\relax }}{9}\protected@file@percent }
\@writefile{lof}{\contentsline {figure}{\numberline {17}{\ignorespaces terus kita tunngu sampai file tersebut sampai selesai\relax }}{9}\protected@file@percent }
\@writefile{lof}{\contentsline {figure}{\numberline {18}{\ignorespaces setelah selesai tampilan otomatis akan seperti diatas terus kita klik "run application\relax }}{10}\protected@file@percent }
\@writefile{lof}{\contentsline {figure}{\numberline {19}{\ignorespaces aplikasi yang kita buat langsung akan seperti tampilan yangada diatas\relax }}{10}\protected@file@percent }
